{
  "type": "service_account",
  "project_id": "abdyabdya-intensive",
  "private_key_id": "bd08b911af89d75167a5b030f9221298ccf62cfa",
  "private_key": "-----BEGIN PRIVATE KEY-----\nMIIEvAIBADANBgkqhkiG9w0BAQEFAASCBKYwggSiAgEAAoIBAQCK0CPRPW24RcEV\n84qxG1xRMw11ElzhDRaQgNgCPLuCk9prHNz6dQ0ifUUK50DogTSQ4nnUvyTBdRx9\n/kEmW3jLKFN/7F606uurT8EL2cNbNEEKiLNi0/NHvJAIp+liHeQCwjbzkq+nuppX\n+fKWDwtdYPVaP4Xzya3vB5gOUZSiSwSmbKjXroY26Xd+xYzymHNBOeNLIMoZbK/k\nydB/jPOyBP5Q8yBPrtpmknFSTG6vOWRqXfh1ZkTHDKdCFlPzKiJ94fqHSN2FTE0d\nGUszuPhXwyY6hSkaWbZ37Ng+hdmD/R6MzodNs4y/RBUfiGLlG3TQ3GCJvMBn+s/F\ntXXgJHTXAgMBAAECggEAJMN9SPRY873dpn+q0r8pUwQPY1sqqBv8RucozmbhTnL0\nHPw29ko74U+GEp4ujaVyk5C3rYW2KVpn4mKNRKhjNIMIok+qwYWaRvPHb+kLmUMc\nmrqbr+fsfapOB0zZPbgm5Cglv5qw1N5R9EzpV57CZsfAE1fRlUBrxWugdOJcWCLc\nS0srSP8F5MArXyBBzJGDalick1DoB+vrMX4TUk93hEo4o9SQfnG3CrQ9kWKz0oWI\nE4XQrggKdmGBsIfn1pMk5EDjr+X7VyZXcThZ+Yh82F7f0p4awgnedu6FL9oaKwS/\nRrN4ZXVuISf9lLjr1JB9jnV+A8OKc+7O41U0YVuh6QKBgQC+x+2U+4RC5CBHxrxt\nLI8/HllXl9QzL4gEr4muO5jv3gPdxmlz4ZxzXlsfvYhH38wv72ObV/02nQjcHjD2\nLUWtnW6quyecCgJOTjb/eIx4Qa04Aql+0LXsND9zHw+bhKlqgEoMPrb0mUVNQqpR\n8WYVly0IEZzkYeTFLqT1/d19uwKBgQC6REXmzJIc64qTH5gxAMqut9AlV76UgxfC\nCJYYJFHKz84FxVMcpBR5lIyuspmCR+RW390GWSX4G6ZQDvkUlLgdKHVvu3fjcH9V\nhkb4Yr8G6OnQKsMO45xwCEhvi4YzTXB9PBKDVXXeELIeaigGVxkPLsjeiOLPTZX6\nRoh1SSbllQKBgCMFFAlq+eZFdd93DZOEwG63pXK8vgj/SpqBlmZTLkmpmVAWYbkR\nyuQqh9OVuPRoklSiPsh/KE3kGYI+UIJ/4PBzm6LfY+/yrmWtWc8fU7mnZKKJao+K\nxDothRAevYCwo2CXWABTasYPdHcwK4+LHlAMRgnbIc+SYKoJW+KDzSqNAoGAMT+7\n+7o7J8pfaWcBJnO/I1MWhckdasb+kR8UEG4J8kXfg0cZIol/oGXWjJpMXFYF2bJ3\nDiakE2W8I47R7M8lnxADfPdkS46DHGnUefgh6gHLUG7+BAHKaxTFkjih0w62n2Yy\nvubpsz1W2xPWYVbGGW2VTsGCtq0c6n+btOcSkcECgYBTQdDFBzSaPbSUhrXIqUm4\niKHTVcVJGV52CLocLdgR2zOyUzh3Ls9KWbHQkEUVacgEwO7yhXTw0tMOMKtImfnv\ndmIpRQ577+wd+MizEaURwRdAZXl4aGl8w63/aCjlNrdJKeA950sKmDeCMNqx9jhA\nUWCMQJcRMwd/CIj0HF3PaQ==\n-----END PRIVATE KEY-----\n",
  "client_email": "firebase-adminsdk-bwkh0@abdyabdya-intensive.iam.gserviceaccount.com",
  "client_id": "112566255113529853502",
  "auth_uri": "https://accounts.google.com/o/oauth2/auth",
  "token_uri": "https://oauth2.googleapis.com/token",
  "auth_provider_x509_cert_url": "https://www.googleapis.com/oauth2/v1/certs",
  "client_x509_cert_url": "https://www.googleapis.com/robot/v1/metadata/x509/firebase-adminsdk-bwkh0%40abdyabdya-intensive.iam.gserviceaccount.com"
}
